<?xml version="1.0" encoding="UTF-8" standalone="no"?>
<!-- Generator: Adobe Illustrator 17.0.0, SVG Export Plug-In . SVG Version: 6.00 Build 0)  -->

<svg
   xmlns:dc="http://purl.org/dc/elements/1.1/"
   xmlns:cc="http://creativecommons.org/ns#"
   xmlns:rdf="http://www.w3.org/1999/02/22-rdf-syntax-ns#"
   xmlns:svg="http://www.w3.org/2000/svg"
   xmlns="http://www.w3.org/2000/svg"
   xmlns:sodipodi="http://sodipodi.sourceforge.net/DTD/sodipodi-0.dtd"
   xmlns:inkscape="http://www.inkscape.org/namespaces/inkscape"
   version="1.1"
   id="Layer_1"
   x="0px"
   y="0px"
   width="38"
   height="16"
   viewBox="0 0 38 16"
   enable-background="new 0 0 44 38"
   xml:space="preserve"
   inkscape:version="0.91 r13725"
   sodipodi:docname="divan.svg"><metadata
     id="metadata9"><rdf:RDF><cc:Work
         rdf:about=""><dc:format>image/svg+xml</dc:format><dc:type
           rdf:resource="http://purl.org/dc/dcmitype/StillImage" /><dc:title></dc:title></cc:Work></rdf:RDF></metadata><defs
     id="defs7" /><sodipodi:namedview
     pagecolor="#ffffff"
     bordercolor="#666666"
     borderopacity="1"
     objecttolerance="10"
     gridtolerance="10"
     guidetolerance="10"
     inkscape:pageopacity="0"
     inkscape:pageshadow="2"
     inkscape:window-width="767"
     inkscape:window-height="480"
     id="namedview5"
     showgrid="false"
     fit-margin-top="0"
     fit-margin-left="0"
     fit-margin-right="0"
     fit-margin-bottom="0"
     inkscape:zoom="6.2105263"
     inkscape:cx="-0.96610169"
     inkscape:cy="16"
     inkscape:window-x="0"
     inkscape:window-y="0"
     inkscape:window-maximized="0"
     inkscape:current-layer="Layer_1" /><path
     d="M 36,4 34,4 34,2 C 34,1.03 33.299,0 32,0 L 21,0 C 20.38,0 19.607,0.217 19,0.721 18.393,0.217 17.62,0 17,0 L 6,0 C 4.701,0 4,1.03 4,2 L 4,4 2,4 C 0.701,4 0,5.03 0,6 l 0,6 c 0,1.299 1.03,2 2,2 l 0,2 3,0 0,-2 28,0 0,2 3,0 0,-2 c 0.97,0 2,-0.701 2,-2 L 38,6 C 38,5.03 37.299,4 36,4 Z M 21,2 32,2 32,8 20,8 20,3 C 20,2.195 20.55,2.012 21,2 Z M 16.988,2 C 17.45,2.012 18,2.195 18,3 L 18,8 6,8 6,2 16.988,2 Z M 2,6 4,6 4,8 4,10 4,12 2,12 2,6 Z m 4,6 0,-2 26,0 0,2 -26,0 z m 30,0 -2,0 0,-6 2,0 0,6 z"
     id="path3"
     inkscape:connector-curvature="0" /></svg>