<svg version="1.1" xmlns="http://www.w3.org/2000/svg" xmlns:xlink="http://www.w3.org/1999/xlink" x="0px" y="0px"
	 width="49.592px" height="24px" viewBox="6.198 3 49.592 24" enable-background="new 6.198 3 49.592 24" xml:space="preserve">
<g>
	<path d="M9.123,21c-1.795,0-2.924,1.384-2.924,2.718c0,1.538,1.129,2.922,2.924,2.922c1.59,0,2.718-1.384,2.718-2.922
		C11.841,22.385,10.713,21,9.123,21z"/>
	<path d="M22.199,6.127V3.41h-4.103v23.077h4.103V10.128c0.872-1.692,2.153-3.282,4.82-3.282c1.384,0,2,0.204,3.128,0.872
		l1.436-3.846C30.813,3.307,29.892,3,27.994,3C25.071,3,23.379,4.383,22.199,6.127z"/>
	<path d="M51.689,19.719c-1.437,1.847-3.95,3.436-6.617,3.436c-4.205,0-5.949-2.564-5.949-6.923V3.41H35.02v13.744
		c0,6.771,3.384,9.846,8.513,9.846c3.644,0,6.565-1.845,8.154-3.793v3.281h4.104V3.41h-4.104v16.309H51.689z"/>
</g>
</svg>
